[
  {
    "id": 1,
    "title": "Monster Absolutely Zero",
    "images": [
      "light-beer.jpg"
    ],
    "description": "Amerikkalaisen Monsterin kaloriton versio",
    "price-range": 40,
    "preferability": 30
  },
  {
    "id": 2,
    "title": "ED Green Light",
    "images": [
      "ed-green-light.jpg"
    ],
    "description": "Kotimaisen EDin hedelmäinen versio.",
    "price-range": 50,
    "preferability": 50
  },
  {
    "id": 3,
    "title": "ED Lemon Light",
    "images": [
      "ed-lemon-light.jpg"
    ],
    "description": "Kotimaisen EDin sitrusversio.",
    "price-range": 50,
    "preferability": 40
  },
  {
    "id": 4,
    "title": "Battery No Calories",
    "images": [
      "battery-no-calories.jpg"
    ],
    "description": "Kotimaisen Batteryn kaloriton versio",
    "price-range": 50,
    "preferability": 50
  },
  {
    "id": 5,
    "title": "Mad Croc Sugarfree",
    "images": [
      "mad-croc-sugarfree.jpg"
    ],
    "description": "Hollantilaisen energiajuoman kaloriton versio. Myydään sekä pienessä (250 ml) että isommassa (500 ml) tölkeissä.",
    "price-range": 20,
    "preferability": 50
  },
  {
    "id": 6,
    "title": "Teho Lite Boost",
    "images": [
      "teho-lite-boost.jpg"
    ],
    "description": "Kotimaisen Olvin kaloriton versio",
    "price-range": 30,
    "preferability": 20
  },
  {
    "id": 7,
    "title": "Monster Ultra",
    "images": [
      ""
    ],
    "description": "Amerikkalaisen Monsterin kaloriton Ultra-variaatio",
    "price-range": 40,
    "preferability": 20
  },
  {
    "id": 8,
    "title": "Red Bull Sugarfree",
    "images": [
      ""
    ],
    "description": "Itävaltalaisen Red Bullin sokeriton versio",
    "price-range": 40,
    "preferability": 20
  }
]